…
To see a tibble of the problems we can do:

``` r
problems(meta)
#> # A tibble: 107 × 4
#>      row      col               expected
#>    <int>    <chr>                  <chr>
#> 1   1146   LENGTH no trailing characters
#> 2   1554 PIT/Tag# no trailing characters
#> 3   1576 PIT/Tag# no trailing characters
#> 4   2841 PIT/Tag# no trailing characters
#> 5   2861 PIT/Tag# no trailing characters
#> 6   2862 PIT/Tag# no trailing characters
#> 7   2863 PIT/Tag# no trailing characters
#> 8   2864 PIT/Tag# no trailing characters
#> 9   2865 PIT/Tag# no trailing characters
#> 10  2866 PIT/Tag# no trailing characters
#> # ... with 97 more rows, and 1 more variables: actual <chr>
```
